<?xml version="1.0" encoding="utf-8"?>
<!-- Generator: Adobe Illustrator 19.2.1, SVG Export Plug-In . SVG Version: 6.00 Build 0)  -->
<svg version="1.1" id="Layer_3" xmlns="http://www.w3.org/2000/svg" xmlns:xlink="http://www.w3.org/1999/xlink" x="0px" y="0px"
	 width="20px" height="20px" viewBox="0 0 20 20" style="enable-background:new 0 0 20 20;" xml:space="preserve">
<g>
	<path d="M10,0C5.9,0,2.5,3.8,2.5,8.4c0,4.5,6.9,11.2,7.1,11.4C9.7,19.9,9.9,20,10,20c0.1,0,0.3-0.1,0.4-0.1
		c0.3-0.3,7.1-6.9,7.1-11.4C17.5,3.8,14.1,0,10,0z M16.4,8.4c0,3.5-5.1,8.8-6.4,10.2c-1.3-1.3-6.4-6.7-6.4-10.2c0-4,2.9-7.2,6.4-7.2
		C13.5,1.2,16.4,4.4,16.4,8.4z"/>
	<path d="M10,3.8c-2.2,0-4,1.8-4,4s1.8,4,4,4c2.2,0,4-1.8,4-4S12.2,3.8,10,3.8z M12.8,7.8c0,1.5-1.2,2.8-2.8,2.8
		c-1.5,0-2.8-1.2-2.8-2.8C7.2,6.2,8.5,5,10,5C11.5,5,12.8,6.2,12.8,7.8z"/>
</g>
</svg>
